{
	"agentes": [
		{
			"agId": "rover0",
			"domainPath": "/media/leonardo/DADOS/Mestrado/Dropbox/LeonardoMoreira-PPGInf/Dissertação/inputs/Evaluation/rovers/domainRovers.pddl",
			"problemPath":"/media/leonardo/DADOS/Mestrado/Dropbox/LeonardoMoreira-PPGInf/Dissertação/inputs/Evaluation/rovers/3agentes/p0.pddl"
		},
		{
			"agId": "rover1",
			"domainPath": "/media/leonardo/DADOS/Mestrado/Dropbox/LeonardoMoreira-PPGInf/Dissertação/inputs/Evaluation/rovers/domainRovers.pddl",
			"problemPath":"/media/leonardo/DADOS/Mestrado/Dropbox/LeonardoMoreira-PPGInf/Dissertação/inputs/Evaluation/rovers/3agentes/p1.pddl"
		},
		{
			"agId": "rover2",
			"domainPath": "/media/leonardo/DADOS/Mestrado/Dropbox/LeonardoMoreira-PPGInf/Dissertação/inputs/Evaluation/rovers/domainRovers.pddl",
			"problemPath":"/media/leonardo/DADOS/Mestrado/Dropbox/LeonardoMoreira-PPGInf/Dissertação/inputs/Evaluation/rovers/3agentes/p2.pddl"
		}
		
	]
}